{
  "project_info": {
    "project_number": "1011933320453",
    "firebase_url": "https://secobol-dev.firebaseio.com",
    "project_id": "secobol-dev",
    "storage_bucket": "secobol-dev.appspot.com"
  },
  "client": [
    {
      "client_info": {
        "mobilesdk_app_id": "1:1011933320453:android:b6a7012488bda7f3",
        "android_client_info": {
          "package_name": "io.keego.secobol"
        }
      },
      "oauth_client": [
        {
          "client_id": "1011933320453-6ti88ruri2vk9jkp8v9fldjvotuj0od9.apps.googleusercontent.com",
          "client_type": 3
        }
      ],
      "api_key": [
        {
          "current_key": "AIzaSyAoEN9MGkmm66N00cB9QRz9Yq7QwB7Jv1E"
        }
      ],
      "services": {
        "analytics_service": {
          "status": 1
        },
        "appinvite_service": {
          "status": 1,
          "other_platform_oauth_client": []
        },
        "ads_service": {
          "status": 2
        }
      }
    }
  ],
  "configuration_version": "1"
}